-------------------------------------------------------------------------------
Test set: AngajatiApp.repository.EmployeeMockTest
-------------------------------------------------------------------------------
Tests run: 1, Failures: 1, Errors: 0, Skipped: 0, Time elapsed: 0.093 s <<< FAILURE! - in AngajatiApp.repository.EmployeeMockTest
addEmployeeTC1_BB  Time elapsed: 0.092 s  <<< FAILURE!
org.opentest4j.AssertionFailedError: expected: <7> but was: <6>
	at AngajatiApp.repository.EmployeeMockTest.addEmployeeTC1_BB(EmployeeMockTest.java:27)

